{
  "regions": {
    "dolnoslaskie": {
      "deaths": 8,
      "infections": 486
    },
    "kujawsko-pomorskie": {
      "deaths": 13,
      "infections": 788
    },
    "lodzkie": {
      "deaths": 9,
      "infections": 447
    },
    "lubelskie": {
      "deaths": 20,
      "infections": 299
    },
    "lubuskie": {
      "deaths": 1,
      "infections": 320
    },
    "malopolskie": {
      "deaths": 1,
      "infections": 310
    },
    "mazowieckie": {
      "deaths": 17,
      "infections": 1105
    },
    "opolskie": {
      "deaths": 1,
      "infections": 173
    },
    "podkarpackie": {
      "deaths": 10,
      "infections": 142
    },
    "podlaskie": {
      "deaths": 9,
      "infections": 178
    },
    "pomorskie": {
      "deaths": 3,
      "infections": 817
    },
    "slaskie": {
      "deaths": 17,
      "infections": 694
    },
    "swietokrzyskie": {
      "deaths": 1,
      "infections": 129
    },
    "warminsko-mazurskie": {
      "deaths": 1,
      "infections": 612
    },
    "wielkopolskie": {
      "deaths": 24,
      "infections": 1151
    },
    "zachodniopomorskie": {
      "deaths": 8,
      "infections": 773
    }
  },
  "time": "2020-12-21T00:00:00",
  "timestamp": 1608505200,
  "total": {
    "deaths": 143,
    "infections": 8594
  }
}
