{
  "regions": {
    "dolnoslaskie": {
      "deaths": 24,
      "infections": 593
    },
    "kujawsko-pomorskie": {
      "deaths": 32,
      "infections": 1114
    },
    "lodzkie": {
      "deaths": 32,
      "infections": 762
    },
    "lubelskie": {
      "deaths": 29,
      "infections": 650
    },
    "lubuskie": {
      "deaths": 19,
      "infections": 407
    },
    "malopolskie": {
      "deaths": 22,
      "infections": 391
    },
    "mazowieckie": {
      "deaths": 47,
      "infections": 1383
    },
    "opolskie": {
      "deaths": 14,
      "infections": 222
    },
    "podkarpackie": {
      "deaths": 13,
      "infections": 366
    },
    "podlaskie": {
      "deaths": 9,
      "infections": 341
    },
    "pomorskie": {
      "deaths": 30,
      "infections": 1040
    },
    "slaskie": {
      "deaths": 55,
      "infections": 803
    },
    "swietokrzyskie": {
      "deaths": 16,
      "infections": 164
    },
    "warminsko-mazurskie": {
      "deaths": 36,
      "infections": 707
    },
    "wielkopolskie": {
      "deaths": 79,
      "infections": 1197
    },
    "zachodniopomorskie": {
      "deaths": 26,
      "infections": 974
    }
  },
  "time": "2020-12-20T00:00:00",
  "timestamp": 1608418800,
  "total": {
    "deaths": 483,
    "infections": 11267
  }
}
