{
  "regions": {
    "dolnoslaskie": {
      "deaths": 10,
      "infections": 311
    },
    "kujawsko-pomorskie": {
      "deaths": 25,
      "infections": 438
    },
    "lodzkie": {
      "deaths": 28,
      "infections": 275
    },
    "lubelskie": {
      "deaths": 38,
      "infections": 266
    },
    "lubuskie": {
      "deaths": 9,
      "infections": 85
    },
    "malopolskie": {
      "deaths": 19,
      "infections": 234
    },
    "mazowieckie": {
      "deaths": 20,
      "infections": 683
    },
    "opolskie": {
      "deaths": 10,
      "infections": 95
    },
    "podkarpackie": {
      "deaths": 4,
      "infections": 188
    },
    "podlaskie": {
      "deaths": 3,
      "infections": 126
    },
    "pomorskie": {
      "deaths": 22,
      "infections": 411
    },
    "slaskie": {
      "deaths": 31,
      "infections": 368
    },
    "swietokrzyskie": {
      "deaths": 4,
      "infections": 77
    },
    "warminsko-mazurskie": {
      "deaths": 27,
      "infections": 354
    },
    "wielkopolskie": {
      "deaths": 27,
      "infections": 413
    },
    "zachodniopomorskie": {
      "deaths": 14,
      "infections": 392
    }
  },
  "time": "2021-01-20T00:00:00",
  "timestamp": 1611097200,
  "total": {
    "deaths": 291,
    "infections": 4835
  }
}
