{
  "regions": {
    "dolnoslaskie": {
      "deaths": 50,
      "infections": 813
    },
    "kujawsko-pomorskie": {
      "deaths": 28,
      "infections": 1101
    },
    "lodzkie": {
      "deaths": 64,
      "infections": 821
    },
    "lubelskie": {
      "deaths": 37,
      "infections": 728
    },
    "lubuskie": {
      "deaths": 16,
      "infections": 349
    },
    "malopolskie": {
      "deaths": 40,
      "infections": 564
    },
    "mazowieckie": {
      "deaths": 41,
      "infections": 1496
    },
    "opolskie": {
      "deaths": 19,
      "infections": 224
    },
    "podkarpackie": {
      "deaths": 33,
      "infections": 253
    },
    "podlaskie": {
      "deaths": 12,
      "infections": 360
    },
    "pomorskie": {
      "deaths": 33,
      "infections": 933
    },
    "slaskie": {
      "deaths": 64,
      "infections": 1465
    },
    "swietokrzyskie": {
      "deaths": 18,
      "infections": 178
    },
    "warminsko-mazurskie": {
      "deaths": 21,
      "infections": 651
    },
    "wielkopolskie": {
      "deaths": 57,
      "infections": 1213
    },
    "zachodniopomorskie": {
      "deaths": 35,
      "infections": 932
    }
  },
  "time": "2020-12-10T00:00:00",
  "timestamp": 1607554800,
  "total": {
    "deaths": 568,
    "infections": 12168
  }
}
