{
  "regions": {
    "dolnoslaskie": {
      "deaths": 30,
      "infections": 519
    },
    "kujawsko-pomorskie": {
      "deaths": 28,
      "infections": 750
    },
    "lodzkie": {
      "deaths": 26,
      "infections": 446
    },
    "lubelskie": {
      "deaths": 14,
      "infections": 437
    },
    "lubuskie": {
      "deaths": 17,
      "infections": 150
    },
    "malopolskie": {
      "deaths": 27,
      "infections": 232
    },
    "mazowieckie": {
      "deaths": 23,
      "infections": 768
    },
    "opolskie": {
      "deaths": 17,
      "infections": 129
    },
    "podkarpackie": {
      "deaths": 7,
      "infections": 306
    },
    "podlaskie": {
      "deaths": 5,
      "infections": 169
    },
    "pomorskie": {
      "deaths": 29,
      "infections": 495
    },
    "slaskie": {
      "deaths": 45,
      "infections": 608
    },
    "swietokrzyskie": {
      "deaths": 8,
      "infections": 174
    },
    "warminsko-mazurskie": {
      "deaths": 23,
      "infections": 572
    },
    "wielkopolskie": {
      "deaths": 46,
      "infections": 639
    },
    "zachodniopomorskie": {
      "deaths": 4,
      "infections": 328
    }
  },
  "time": "2020-12-16T00:00:00",
  "timestamp": 1608073200,
  "total": {
    "deaths": 349,
    "infections": 6907
  }
}
