{
  "regions": {
    "dolnoslaskie": {
      "deaths": 49,
      "infections": 797
    },
    "kujawsko-pomorskie": {
      "deaths": 52,
      "infections": 1002
    },
    "lodzkie": {
      "deaths": 41,
      "infections": 838
    },
    "lubelskie": {
      "deaths": 15,
      "infections": 639
    },
    "lubuskie": {
      "deaths": 18,
      "infections": 447
    },
    "malopolskie": {
      "deaths": 27,
      "infections": 472
    },
    "mazowieckie": {
      "deaths": 58,
      "infections": 1722
    },
    "opolskie": {
      "deaths": 13,
      "infections": 337
    },
    "podkarpackie": {
      "deaths": 36,
      "infections": 260
    },
    "podlaskie": {
      "deaths": 40,
      "infections": 308
    },
    "pomorskie": {
      "deaths": 22,
      "infections": 1147
    },
    "slaskie": {
      "deaths": 68,
      "infections": 1080
    },
    "swietokrzyskie": {
      "deaths": 9,
      "infections": 218
    },
    "warminsko-mazurskie": {
      "deaths": 17,
      "infections": 1198
    },
    "wielkopolskie": {
      "deaths": 49,
      "infections": 1411
    },
    "zachodniopomorskie": {
      "deaths": 30,
      "infections": 1110
    }
  },
  "time": "2020-12-12T00:00:00",
  "timestamp": 1607727600,
  "total": {
    "deaths": 544,
    "infections": 13110
  }
}
