{
  "regions": {
    "dolnoslaskie": {
      "deaths": 11,
      "infections": 781
    },
    "kujawsko-pomorskie": {
      "deaths": 14,
      "infections": 623
    },
    "lodzkie": {
      "deaths": 37,
      "infections": 838
    },
    "lubelskie": {
      "deaths": 25,
      "infections": 616
    },
    "lubuskie": {
      "deaths": 6,
      "infections": 373
    },
    "malopolskie": {
      "deaths": 9,
      "infections": 440
    },
    "mazowieckie": {
      "deaths": 57,
      "infections": 1413
    },
    "opolskie": {
      "deaths": 3,
      "infections": 432
    },
    "podkarpackie": {
      "deaths": 28,
      "infections": 339
    },
    "podlaskie": {
      "deaths": 11,
      "infections": 307
    },
    "pomorskie": {
      "deaths": 19,
      "infections": 978
    },
    "slaskie": {
      "deaths": 19,
      "infections": 977
    },
    "swietokrzyskie": {
      "deaths": 10,
      "infections": 270
    },
    "warminsko-mazurskie": {
      "deaths": 7,
      "infections": 618
    },
    "wielkopolskie": {
      "deaths": 21,
      "infections": 1574
    },
    "zachodniopomorskie": {
      "deaths": 6,
      "infections": 780
    }
  },
  "time": "2020-11-29T00:00:00",
  "timestamp": 1606604400,
  "total": {
    "deaths": 283,
    "infections": 11483
  }
}
