{
  "regions": {
    "dolnoslaskie": {
      "deaths": 24,
      "infections": 985
    },
    "kujawsko-pomorskie": {
      "deaths": 35,
      "infections": 1404
    },
    "lodzkie": {
      "deaths": 67,
      "infections": 863
    },
    "lubelskie": {
      "deaths": 33,
      "infections": 618
    },
    "lubuskie": {
      "deaths": 17,
      "infections": 467
    },
    "malopolskie": {
      "deaths": 27,
      "infections": 488
    },
    "mazowieckie": {
      "deaths": 48,
      "infections": 1701
    },
    "opolskie": {
      "deaths": 14,
      "infections": 493
    },
    "podkarpackie": {
      "deaths": 33,
      "infections": 406
    },
    "podlaskie": {
      "deaths": 5,
      "infections": 364
    },
    "pomorskie": {
      "deaths": 19,
      "infections": 887
    },
    "slaskie": {
      "deaths": 47,
      "infections": 1251
    },
    "swietokrzyskie": {
      "deaths": 14,
      "infections": 215
    },
    "warminsko-mazurskie": {
      "deaths": 30,
      "infections": 897
    },
    "wielkopolskie": {
      "deaths": 49,
      "infections": 1672
    },
    "zachodniopomorskie": {
      "deaths": 8,
      "infections": 956
    }
  },
  "time": "2020-12-11T00:00:00",
  "timestamp": 1607641200,
  "total": {
    "deaths": 470,
    "infections": 13749
  }
}
