{
  "regions": {
    "dolnoslaskie": {
      "area": 19947,
      "population": 2901225
    },
    "kujawsko-pomorskie": {
      "area": 17971,
      "population": 2077775
    },
    "lubelskie": {
      "area": 25123,
      "population": 2117619
    },
    "lubuskie": {
      "area": 13988,
      "population": 1014548
    },
    "lodzkie": {
      "area": 18219,
      "population": 2466322
    },
    "malopolskie": {
      "area": 15183,
      "population": 3400577
    },
    "mazowieckie": {
      "area": 35559,
      "population": 5403412
    },
    "opolskie": {
      "area": 9412,
      "population": 986506
    },
    "podkarpackie": {
      "area": 17846,
      "population": 2129015
    },
    "podlaskie": {
      "area": 20187,
      "population": 1181533
    },
    "pomorskie": {
      "area": 18323,
      "population": 2333523
    },
    "slaskie": {
      "area": 12333,
      "population": 4533565
    },
    "swietokrzyskie": {
      "area": 11710,
      "population": 1241546
    },
    "warminsko-mazurskie": {
      "area": 24173,
      "population": 1428983
    },
    "wielkopolskie": {
      "area": 29826,
      "population": 3493969
    },
    "zachodniopomorskie": {
      "area": 22905,
      "population": 1701030
    }
  },
  "total": {
    "area": 312705,
    "population": 38411148
  }
}
