{
  "regions": {
    "dolnoslaskie": {
      "deaths": 4,
      "infections": 157
    },
    "kujawsko-pomorskie": {
      "deaths": 0,
      "infections": 31
    },
    "lodzkie": {
      "deaths": 0,
      "infections": 158
    },
    "lubelskie": {
      "deaths": 2,
      "infections": 72
    },
    "lubuskie": {
      "deaths": 0,
      "infections": 20
    },
    "malopolskie": {
      "deaths": 0,
      "infections": 63
    },
    "mazowieckie": {
      "deaths": 1,
      "infections": 251
    },
    "opolskie": {
      "deaths": 0,
      "infections": 24
    },
    "podkarpackie": {
      "deaths": 1,
      "infections": 45
    },
    "podlaskie": {
      "deaths": 0,
      "infections": 10
    },
    "pomorskie": {
      "deaths": 0,
      "infections": 25
    },
    "slaskie": {
      "deaths": 2,
      "infections": 117
    },
    "swietokrzyskie": {
      "deaths": 1,
      "infections": 15
    },
    "warminsko-mazurskie": {
      "deaths": 0,
      "infections": 36
    },
    "wielkopolskie": {
      "deaths": 2,
      "infections": 64
    },
    "zachodniopomorskie": {
      "deaths": 1,
      "infections": 32
    }
  },
  "time": "2020-03-26T14:01:00",
  "timestamp": 1585227660,
  "total": {
    "deaths": 14,
    "infections": 1120
  }
}
