{
  "regions": {
    "dolnoslaskie": {
      "deaths": 508,
      "infections": 31507
    },
    "kujawsko-pomorskie": {
      "deaths": 218,
      "infections": 32231
    },
    "lodzkie": {
      "deaths": 507,
      "infections": 38066
    },
    "lubelskie": {
      "deaths": 406,
      "infections": 27188
    },
    "lubuskie": {
      "deaths": 143,
      "infections": 9910
    },
    "malopolskie": {
      "deaths": 889,
      "infections": 58422
    },
    "mazowieckie": {
      "deaths": 978,
      "infections": 71163
    },
    "opolskie": {
      "deaths": 289,
      "infections": 14383
    },
    "podkarpackie": {
      "deaths": 578,
      "infections": 31287
    },
    "podlaskie": {
      "deaths": 189,
      "infections": 12950
    },
    "pomorskie": {
      "deaths": 391,
      "infections": 29342
    },
    "slaskie": {
      "deaths": 1154,
      "infections": 67263
    },
    "swietokrzyskie": {
      "deaths": 299,
      "infections": 16319
    },
    "warminsko-mazurskie": {
      "deaths": 169,
      "infections": 13361
    },
    "wielkopolskie": {
      "deaths": 748,
      "infections": 52147
    },
    "zachodniopomorskie": {
      "deaths": 170,
      "infections": 16101
    }
  },
  "time": "2020-11-07T10:00:00",
  "timestamp": 1604739600,
  "total": {
    "deaths": 7636,
    "infections": 521640
  }
}
