{
  "regions": {
    "dolnoslaskie": {
      "deaths": 30,
      "infections": 893
    },
    "kujawsko-pomorskie": {
      "deaths": 13,
      "infections": 387
    },
    "lodzkie": {
      "deaths": 8,
      "infections": 607
    },
    "lubelskie": {
      "deaths": 10,
      "infections": 290
    },
    "lubuskie": {
      "deaths": 0,
      "infections": 81
    },
    "malopolskie": {
      "deaths": 16,
      "infections": 596
    },
    "mazowieckie": {
      "deaths": 100,
      "infections": 1883
    },
    "opolskie": {
      "deaths": 13,
      "infections": 254
    },
    "podkarpackie": {
      "deaths": 15,
      "infections": 251
    },
    "podlaskie": {
      "deaths": 3,
      "infections": 291
    },
    "pomorskie": {
      "deaths": 2,
      "infections": 185
    },
    "slaskie": {
      "deaths": 67,
      "infections": 1219
    },
    "swietokrzyskie": {
      "deaths": 4,
      "infections": 193
    },
    "warminsko-mazurskie": {
      "deaths": 1,
      "infections": 139
    },
    "wielkopolskie": {
      "deaths": 48,
      "infections": 880
    },
    "zachodniopomorskie": {
      "deaths": 2,
      "infections": 230
    }
  },
  "time": "2020-04-17T17:30:00",
  "timestamp": 1587137400,
  "total": {
    "deaths": 332,
    "infections": 8379
  }
}
