{
  "regions": {
    "dolnoslaskie": {
      "deaths": 101,
      "infections": 2471
    },
    "kujawsko-pomorskie": {
      "deaths": 46,
      "infections": 594
    },
    "lodzkie": {
      "deaths": 61,
      "infections": 1384
    },
    "lubelskie": {
      "deaths": 15,
      "infections": 449
    },
    "lubuskie": {
      "deaths": 0,
      "infections": 111
    },
    "malopolskie": {
      "deaths": 40,
      "infections": 1179
    },
    "mazowieckie": {
      "deaths": 256,
      "infections": 3359
    },
    "opolskie": {
      "deaths": 47,
      "infections": 601
    },
    "podkarpackie": {
      "deaths": 35,
      "infections": 378
    },
    "podlaskie": {
      "deaths": 9,
      "infections": 430
    },
    "pomorskie": {
      "deaths": 32,
      "infections": 542
    },
    "slaskie": {
      "deaths": 194,
      "infections": 7414
    },
    "swietokrzyskie": {
      "deaths": 21,
      "infections": 399
    },
    "warminsko-mazurskie": {
      "deaths": 1,
      "infections": 179
    },
    "wielkopolskie": {
      "deaths": 147,
      "infections": 2059
    },
    "zachodniopomorskie": {
      "deaths": 19,
      "infections": 525
    }
  },
  "time": "2020-05-26T17:30:00",
  "timestamp": 1590507000,
  "total": {
    "deaths": 1024,
    "infections": 22074
  }
}
