{
  "regions": {
    "dolnoslaskie": {
      "deaths": 112,
      "infections": 2652
    },
    "kujawsko-pomorskie": {
      "deaths": 47,
      "infections": 596
    },
    "lodzkie": {
      "deaths": 74,
      "infections": 1667
    },
    "lubelskie": {
      "deaths": 15,
      "infections": 503
    },
    "lubuskie": {
      "deaths": 0,
      "infections": 122
    },
    "malopolskie": {
      "deaths": 40,
      "infections": 1272
    },
    "mazowieckie": {
      "deaths": 279,
      "infections": 3688
    },
    "opolskie": {
      "deaths": 49,
      "infections": 689
    },
    "podkarpackie": {
      "deaths": 36,
      "infections": 388
    },
    "podlaskie": {
      "deaths": 9,
      "infections": 474
    },
    "pomorskie": {
      "deaths": 35,
      "infections": 559
    },
    "slaskie": {
      "deaths": 225,
      "infections": 8770
    },
    "swietokrzyskie": {
      "deaths": 22,
      "infections": 507
    },
    "warminsko-mazurskie": {
      "deaths": 1,
      "infections": 179
    },
    "wielkopolskie": {
      "deaths": 154,
      "infections": 2212
    },
    "zachodniopomorskie": {
      "deaths": 19,
      "infections": 548
    }
  },
  "time": "2020-06-04T10:00:00",
  "timestamp": 1591257600,
  "total": {
    "deaths": 1117,
    "infections": 24826
  }
}
