{
  "regions": {
    "dolnoslaskie": {
      "deaths": 2,
      "infections": 61
    },
    "kujawsko-pomorskie": {
      "deaths": 0,
      "infections": 16
    },
    "lodzkie": {
      "deaths": 0,
      "infections": 57
    },
    "lubelskie": {
      "deaths": 1,
      "infections": 30
    },
    "lubuskie": {
      "deaths": 0,
      "infections": 9
    },
    "malopolskie": {
      "deaths": 0,
      "infections": 15
    },
    "mazowieckie": {
      "deaths": 0,
      "infections": 107
    },
    "opolskie": {
      "deaths": 0,
      "infections": 10
    },
    "podkarpackie": {
      "deaths": 1,
      "infections": 20
    },
    "podlaskie": {
      "deaths": 0,
      "infections": 5
    },
    "pomorskie": {
      "deaths": 0,
      "infections": 11
    },
    "slaskie": {
      "deaths": 0,
      "infections": 49
    },
    "swietokrzyskie": {
      "deaths": 0,
      "infections": 6
    },
    "warminsko-mazurskie": {
      "deaths": 0,
      "infections": 20
    },
    "wielkopolskie": {
      "deaths": 1,
      "infections": 26
    },
    "zachodniopomorskie": {
      "deaths": 0,
      "infections": 10
    }
  },
  "time": "2020-03-21T13:20:00",
  "timestamp": 1584793200,
  "total": {
    "deaths": 5,
    "infections": 452
  }
}
