{
  "regions": {
    "dolnoslaskie": {
      "deaths": 82,
      "infections": 2128
    },
    "kujawsko-pomorskie": {
      "deaths": 41,
      "infections": 581
    },
    "lodzkie": {
      "deaths": 45,
      "infections": 1219
    },
    "lubelskie": {
      "deaths": 14,
      "infections": 401
    },
    "lubuskie": {
      "deaths": 0,
      "infections": 92
    },
    "malopolskie": {
      "deaths": 35,
      "infections": 1113
    },
    "mazowieckie": {
      "deaths": 230,
      "infections": 2902
    },
    "opolskie": {
      "deaths": 38,
      "infections": 520
    },
    "podkarpackie": {
      "deaths": 31,
      "infections": 373
    },
    "podlaskie": {
      "deaths": 8,
      "infections": 386
    },
    "pomorskie": {
      "deaths": 28,
      "infections": 492
    },
    "slaskie": {
      "deaths": 172,
      "infections": 4905
    },
    "swietokrzyskie": {
      "deaths": 16,
      "infections": 340
    },
    "warminsko-mazurskie": {
      "deaths": 1,
      "infections": 170
    },
    "wielkopolskie": {
      "deaths": 135,
      "infections": 1737
    },
    "zachodniopomorskie": {
      "deaths": 17,
      "infections": 491
    }
  },
  "time": "2020-05-15T10:00:00",
  "timestamp": 1589529600,
  "total": {
    "deaths": 893,
    "infections": 17850
  }
}
