{
  "regions": {
    "dolnoslaskie": {
      "deaths": 93,
      "infections": 2267
    },
    "kujawsko-pomorskie": {
      "deaths": 44,
      "infections": 583
    },
    "lodzkie": {
      "deaths": 51,
      "infections": 1257
    },
    "lubelskie": {
      "deaths": 14,
      "infections": 411
    },
    "lubuskie": {
      "deaths": 0,
      "infections": 92
    },
    "malopolskie": {
      "deaths": 40,
      "infections": 1150
    },
    "mazowieckie": {
      "deaths": 237,
      "infections": 3040
    },
    "opolskie": {
      "deaths": 41,
      "infections": 563
    },
    "podkarpackie": {
      "deaths": 34,
      "infections": 374
    },
    "podlaskie": {
      "deaths": 9,
      "infections": 404
    },
    "pomorskie": {
      "deaths": 29,
      "infections": 507
    },
    "slaskie": {
      "deaths": 182,
      "infections": 5989
    },
    "swietokrzyskie": {
      "deaths": 19,
      "infections": 355
    },
    "warminsko-mazurskie": {
      "deaths": 1,
      "infections": 175
    },
    "wielkopolskie": {
      "deaths": 141,
      "infections": 1899
    },
    "zachodniopomorskie": {
      "deaths": 18,
      "infections": 503
    }
  },
  "time": "2020-05-20T10:00:00",
  "timestamp": 1589961600,
  "total": {
    "deaths": 953,
    "infections": 19569
  }
}
