{
  "regions": {
    "dolnoslaskie": {
      "deaths": 166,
      "infections": 3965
    },
    "kujawsko-pomorskie": {
      "deaths": 53,
      "infections": 1230
    },
    "lodzkie": {
      "deaths": 235,
      "infections": 5157
    },
    "lubelskie": {
      "deaths": 25,
      "infections": 1457
    },
    "lubuskie": {
      "deaths": 14,
      "infections": 651
    },
    "malopolskie": {
      "deaths": 122,
      "infections": 6989
    },
    "mazowieckie": {
      "deaths": 404,
      "infections": 8978
    },
    "opolskie": {
      "deaths": 60,
      "infections": 1588
    },
    "podkarpackie": {
      "deaths": 81,
      "infections": 2261
    },
    "podlaskie": {
      "deaths": 29,
      "infections": 1257
    },
    "pomorskie": {
      "deaths": 44,
      "infections": 2329
    },
    "slaskie": {
      "deaths": 473,
      "infections": 20132
    },
    "swietokrzyskie": {
      "deaths": 49,
      "infections": 1361
    },
    "warminsko-mazurskie": {
      "deaths": 8,
      "infections": 835
    },
    "wielkopolskie": {
      "deaths": 220,
      "infections": 5413
    },
    "zachodniopomorskie": {
      "deaths": 27,
      "infections": 1086
    }
  },
  "time": "2020-08-27T10:00:00",
  "timestamp": 1598515200,
  "total": {
    "deaths": 2010,
    "infections": 64689
  }
}
