{
  "regions": {
    "dolnoslaskie": {
      "deaths": 96,
      "infections": 2399
    },
    "kujawsko-pomorskie": {
      "deaths": 45,
      "infections": 592
    },
    "lodzkie": {
      "deaths": 58,
      "infections": 1324
    },
    "lubelskie": {
      "deaths": 15,
      "infections": 421
    },
    "lubuskie": {
      "deaths": 0,
      "infections": 99
    },
    "malopolskie": {
      "deaths": 40,
      "infections": 1171
    },
    "mazowieckie": {
      "deaths": 247,
      "infections": 3197
    },
    "opolskie": {
      "deaths": 44,
      "infections": 590
    },
    "podkarpackie": {
      "deaths": 35,
      "infections": 377
    },
    "podlaskie": {
      "deaths": 9,
      "infections": 414
    },
    "pomorskie": {
      "deaths": 30,
      "infections": 527
    },
    "slaskie": {
      "deaths": 189,
      "infections": 6797
    },
    "swietokrzyskie": {
      "deaths": 20,
      "infections": 374
    },
    "warminsko-mazurskie": {
      "deaths": 1,
      "infections": 175
    },
    "wielkopolskie": {
      "deaths": 145,
      "infections": 1953
    },
    "zachodniopomorskie": {
      "deaths": 19,
      "infections": 521
    }
  },
  "time": "2020-05-23T17:30:00",
  "timestamp": 1590247800,
  "total": {
    "deaths": 993,
    "infections": 20931
  }
}
