{
  "regions": {
    "dolnoslaskie": {
      "deaths": 101,
      "infections": 2512
    },
    "kujawsko-pomorskie": {
      "deaths": 46,
      "infections": 595
    },
    "lodzkie": {
      "deaths": 63,
      "infections": 1412
    },
    "lubelskie": {
      "deaths": 15,
      "infections": 471
    },
    "lubuskie": {
      "deaths": 0,
      "infections": 111
    },
    "malopolskie": {
      "deaths": 40,
      "infections": 1181
    },
    "mazowieckie": {
      "deaths": 256,
      "infections": 3396
    },
    "opolskie": {
      "deaths": 47,
      "infections": 610
    },
    "podkarpackie": {
      "deaths": 35,
      "infections": 378
    },
    "podlaskie": {
      "deaths": 9,
      "infections": 439
    },
    "pomorskie": {
      "deaths": 33,
      "infections": 546
    },
    "slaskie": {
      "deaths": 195,
      "infections": 7590
    },
    "swietokrzyskie": {
      "deaths": 21,
      "infections": 408
    },
    "warminsko-mazurskie": {
      "deaths": 1,
      "infections": 179
    },
    "wielkopolskie": {
      "deaths": 147,
      "infections": 2118
    },
    "zachodniopomorskie": {
      "deaths": 19,
      "infections": 527
    }
  },
  "time": "2020-05-27T17:30:00",
  "timestamp": 1590593400,
  "total": {
    "deaths": 1028,
    "infections": 22473
  }
}
