{
  "regions": {
    "dolnoslaskie": {
      "deaths": 96,
      "infections": 2407
    },
    "kujawsko-pomorskie": {
      "deaths": 45,
      "infections": 592
    },
    "lodzkie": {
      "deaths": 58,
      "infections": 1324
    },
    "lubelskie": {
      "deaths": 15,
      "infections": 434
    },
    "lubuskie": {
      "deaths": 0,
      "infections": 102
    },
    "malopolskie": {
      "deaths": 40,
      "infections": 1171
    },
    "mazowieckie": {
      "deaths": 247,
      "infections": 3197
    },
    "opolskie": {
      "deaths": 44,
      "infections": 593
    },
    "podkarpackie": {
      "deaths": 35,
      "infections": 377
    },
    "podlaskie": {
      "deaths": 9,
      "infections": 417
    },
    "pomorskie": {
      "deaths": 30,
      "infections": 531
    },
    "slaskie": {
      "deaths": 191,
      "infections": 6958
    },
    "swietokrzyskie": {
      "deaths": 20,
      "infections": 381
    },
    "warminsko-mazurskie": {
      "deaths": 1,
      "infections": 175
    },
    "wielkopolskie": {
      "deaths": 145,
      "infections": 2055
    },
    "zachodniopomorskie": {
      "deaths": 19,
      "infections": 522
    }
  },
  "time": "2020-05-24T10:00:00",
  "timestamp": 1590307200,
  "total": {
    "deaths": 995,
    "infections": 21236
  }
}
