{
  "regions": {
    "dolnoslaskie": {
      "deaths": 2,
      "infections": 134
    },
    "kujawsko-pomorskie": {
      "deaths": 0,
      "infections": 22
    },
    "lodzkie": {
      "deaths": 0,
      "infections": 129
    },
    "lubelskie": {
      "deaths": 2,
      "infections": 54
    },
    "lubuskie": {
      "deaths": 0,
      "infections": 21
    },
    "malopolskie": {
      "deaths": 0,
      "infections": 49
    },
    "mazowieckie": {
      "deaths": 1,
      "infections": 212
    },
    "opolskie": {
      "deaths": 0,
      "infections": 21
    },
    "podkarpackie": {
      "deaths": 1,
      "infections": 37
    },
    "podlaskie": {
      "deaths": 0,
      "infections": 7
    },
    "pomorskie": {
      "deaths": 0,
      "infections": 22
    },
    "slaskie": {
      "deaths": 2,
      "infections": 87
    },
    "swietokrzyskie": {
      "deaths": 0,
      "infections": 8
    },
    "warminsko-mazurskie": {
      "deaths": 0,
      "infections": 29
    },
    "wielkopolskie": {
      "deaths": 2,
      "infections": 42
    },
    "zachodniopomorskie": {
      "deaths": 0,
      "infections": 27
    }
  },
  "time": "2020-03-24T21:21:00",
  "timestamp": 1585081260,
  "total": {
    "deaths": 10,
    "infections": 901
  }
}
