{
  "regions": {
    "dolnoslaskie": {
      "deaths": 152,
      "infections": 3170
    },
    "kujawsko-pomorskie": {
      "deaths": 50,
      "infections": 750
    },
    "lodzkie": {
      "deaths": 203,
      "infections": 3824
    },
    "lubelskie": {
      "deaths": 21,
      "infections": 927
    },
    "lubuskie": {
      "deaths": 7,
      "infections": 366
    },
    "malopolskie": {
      "deaths": 53,
      "infections": 3132
    },
    "mazowieckie": {
      "deaths": 371,
      "infections": 6119
    },
    "opolskie": {
      "deaths": 54,
      "infections": 1130
    },
    "podkarpackie": {
      "deaths": 59,
      "infections": 1188
    },
    "podlaskie": {
      "deaths": 18,
      "infections": 947
    },
    "pomorskie": {
      "deaths": 39,
      "infections": 832
    },
    "slaskie": {
      "deaths": 384,
      "infections": 15436
    },
    "swietokrzyskie": {
      "deaths": 45,
      "infections": 950
    },
    "warminsko-mazurskie": {
      "deaths": 2,
      "infections": 338
    },
    "wielkopolskie": {
      "deaths": 195,
      "infections": 3596
    },
    "zachodniopomorskie": {
      "deaths": 23,
      "infections": 697
    }
  },
  "time": "2020-07-27T10:00:00",
  "timestamp": 1595836800,
  "total": {
    "deaths": 1676,
    "infections": 43402
  }
}
