{
  "regions": {
    "dolnoslaskie": {
      "deaths": 161,
      "infections": 3773
    },
    "kujawsko-pomorskie": {
      "deaths": 51,
      "infections": 1071
    },
    "lodzkie": {
      "deaths": 225,
      "infections": 4766
    },
    "lubelskie": {
      "deaths": 24,
      "infections": 1331
    },
    "lubuskie": {
      "deaths": 12,
      "infections": 619
    },
    "malopolskie": {
      "deaths": 103,
      "infections": 5989
    },
    "mazowieckie": {
      "deaths": 394,
      "infections": 8267
    },
    "opolskie": {
      "deaths": 60,
      "infections": 1476
    },
    "podkarpackie": {
      "deaths": 77,
      "infections": 1976
    },
    "podlaskie": {
      "deaths": 29,
      "infections": 1177
    },
    "pomorskie": {
      "deaths": 42,
      "infections": 1805
    },
    "slaskie": {
      "deaths": 451,
      "infections": 19295
    },
    "swietokrzyskie": {
      "deaths": 48,
      "infections": 1209
    },
    "warminsko-mazurskie": {
      "deaths": 5,
      "infections": 665
    },
    "wielkopolskie": {
      "deaths": 216,
      "infections": 4938
    },
    "zachodniopomorskie": {
      "deaths": 27,
      "infections": 1021
    }
  },
  "time": "2020-08-20T10:00:00",
  "timestamp": 1597910400,
  "total": {
    "deaths": 1925,
    "infections": 59378
  }
}
