{
  "regions": {
    "dolnoslaskie": {
      "deaths": 25,
      "infections": 783
    },
    "kujawsko-pomorskie": {
      "deaths": 12,
      "infections": 367
    },
    "lodzkie": {
      "deaths": 9,
      "infections": 572
    },
    "lubelskie": {
      "deaths": 10,
      "infections": 279
    },
    "lubuskie": {
      "deaths": 0,
      "infections": 81
    },
    "malopolskie": {
      "deaths": 15,
      "infections": 571
    },
    "mazowieckie": {
      "deaths": 83,
      "infections": 1792
    },
    "opolskie": {
      "deaths": 9,
      "infections": 228
    },
    "podkarpackie": {
      "deaths": 15,
      "infections": 245
    },
    "podlaskie": {
      "deaths": 3,
      "infections": 273
    },
    "pomorskie": {
      "deaths": 2,
      "infections": 181
    },
    "slaskie": {
      "deaths": 60,
      "infections": 1050
    },
    "swietokrzyskie": {
      "deaths": 3,
      "infections": 173
    },
    "warminsko-mazurskie": {
      "deaths": 1,
      "infections": 125
    },
    "wielkopolskie": {
      "deaths": 43,
      "infections": 828
    },
    "zachodniopomorskie": {
      "deaths": 2,
      "infections": 223
    }
  },
  "time": "2020-04-16T10:30:00",
  "timestamp": 1587025800,
  "total": {
    "deaths": 292,
    "infections": 7771
  }
}
