{
  "regions": {
    "dolnoslaskie": {
      "deaths": 96,
      "infections": 2433
    },
    "kujawsko-pomorskie": {
      "deaths": 45,
      "infections": 593
    },
    "lodzkie": {
      "deaths": 58,
      "infections": 1347
    },
    "lubelskie": {
      "deaths": 15,
      "infections": 444
    },
    "lubuskie": {
      "deaths": 0,
      "infections": 104
    },
    "malopolskie": {
      "deaths": 40,
      "infections": 1176
    },
    "mazowieckie": {
      "deaths": 247,
      "infections": 3217
    },
    "opolskie": {
      "deaths": 45,
      "infections": 597
    },
    "podkarpackie": {
      "deaths": 35,
      "infections": 378
    },
    "podlaskie": {
      "deaths": 9,
      "infections": 421
    },
    "pomorskie": {
      "deaths": 30,
      "infections": 536
    },
    "slaskie": {
      "deaths": 191,
      "infections": 7071
    },
    "swietokrzyskie": {
      "deaths": 20,
      "infections": 386
    },
    "warminsko-mazurskie": {
      "deaths": 1,
      "infections": 175
    },
    "wielkopolskie": {
      "deaths": 145,
      "infections": 2039
    },
    "zachodniopomorskie": {
      "deaths": 19,
      "infections": 523
    }
  },
  "time": "2020-05-25T10:00:00",
  "timestamp": 1590393600,
  "total": {
    "deaths": 996,
    "infections": 21440
  }
}
