{
  "regions": {
    "dolnoslaskie": {
      "deaths": 606,
      "infections": 40227
    },
    "kujawsko-pomorskie": {
      "deaths": 286,
      "infections": 36588
    },
    "lodzkie": {
      "deaths": 536,
      "infections": 43755
    },
    "lubelskie": {
      "deaths": 482,
      "infections": 32551
    },
    "lubuskie": {
      "deaths": 167,
      "infections": 12364
    },
    "malopolskie": {
      "deaths": 1019,
      "infections": 69522
    },
    "mazowieckie": {
      "deaths": 1140,
      "infections": 78850
    },
    "opolskie": {
      "deaths": 350,
      "infections": 17504
    },
    "podkarpackie": {
      "deaths": 641,
      "infections": 36757
    },
    "podlaskie": {
      "deaths": 238,
      "infections": 15876
    },
    "pomorskie": {
      "deaths": 456,
      "infections": 34236
    },
    "slaskie": {
      "deaths": 1289,
      "infections": 84223
    },
    "swietokrzyskie": {
      "deaths": 344,
      "infections": 18345
    },
    "warminsko-mazurskie": {
      "deaths": 205,
      "infections": 15880
    },
    "wielkopolskie": {
      "deaths": 856,
      "infections": 62902
    },
    "zachodniopomorskie": {
      "deaths": 190,
      "infections": 19233
    }
  },
  "time": "2020-11-11T10:00:00",
  "timestamp": 1605085200,
  "total": {
    "deaths": 8805,
    "infections": 618813
  }
}
