{
  "regions": {
    "dolnoslaskie": {
      "deaths": 98,
      "infections": 2455
    },
    "kujawsko-pomorskie": {
      "deaths": 46,
      "infections": 594
    },
    "lodzkie": {
      "deaths": 58,
      "infections": 1362
    },
    "lubelskie": {
      "deaths": 15,
      "infections": 446
    },
    "lubuskie": {
      "deaths": 0,
      "infections": 108
    },
    "malopolskie": {
      "deaths": 40,
      "infections": 1176
    },
    "mazowieckie": {
      "deaths": 253,
      "infections": 3283
    },
    "opolskie": {
      "deaths": 45,
      "infections": 598
    },
    "podkarpackie": {
      "deaths": 35,
      "infections": 378
    },
    "podlaskie": {
      "deaths": 9,
      "infections": 423
    },
    "pomorskie": {
      "deaths": 30,
      "infections": 540
    },
    "slaskie": {
      "deaths": 192,
      "infections": 7140
    },
    "swietokrzyskie": {
      "deaths": 20,
      "infections": 392
    },
    "warminsko-mazurskie": {
      "deaths": 1,
      "infections": 175
    },
    "wielkopolskie": {
      "deaths": 146,
      "infections": 2040
    },
    "zachodniopomorskie": {
      "deaths": 19,
      "infections": 521
    }
  },
  "time": "2020-05-25T17:30:00",
  "timestamp": 1590420600,
  "total": {
    "deaths": 1007,
    "infections": 21631
  }
}
