{
  "regions": {
    "dolnoslaskie": {
      "deaths": 169,
      "infections": 4345
    },
    "kujawsko-pomorskie": {
      "deaths": 54,
      "infections": 1532
    },
    "lodzkie": {
      "deaths": 244,
      "infections": 5575
    },
    "lubelskie": {
      "deaths": 30,
      "infections": 1799
    },
    "lubuskie": {
      "deaths": 17,
      "infections": 773
    },
    "malopolskie": {
      "deaths": 156,
      "infections": 8635
    },
    "mazowieckie": {
      "deaths": 421,
      "infections": 10217
    },
    "opolskie": {
      "deaths": 64,
      "infections": 1778
    },
    "podkarpackie": {
      "deaths": 94,
      "infections": 2846
    },
    "podlaskie": {
      "deaths": 33,
      "infections": 1441
    },
    "pomorskie": {
      "deaths": 50,
      "infections": 2947
    },
    "slaskie": {
      "deaths": 509,
      "infections": 21054
    },
    "swietokrzyskie": {
      "deaths": 53,
      "infections": 1605
    },
    "warminsko-mazurskie": {
      "deaths": 9,
      "infections": 1044
    },
    "wielkopolskie": {
      "deaths": 238,
      "infections": 6230
    },
    "zachodniopomorskie": {
      "deaths": 28,
      "infections": 1226
    }
  },
  "time": "2020-09-11T10:00:00",
  "timestamp": 1599811200,
  "total": {
    "deaths": 2169,
    "infections": 73047
  }
}
