{
  "regions": {
    "dolnoslaskie": {
      "deaths": 256,
      "infections": 12116
    },
    "kujawsko-pomorskie": {
      "deaths": 146,
      "infections": 11730
    },
    "lodzkie": {
      "deaths": 355,
      "infections": 16642
    },
    "lubelskie": {
      "deaths": 156,
      "infections": 9424
    },
    "lubuskie": {
      "deaths": 38,
      "infections": 3939
    },
    "malopolskie": {
      "deaths": 423,
      "infections": 29896
    },
    "mazowieckie": {
      "deaths": 587,
      "infections": 31416
    },
    "opolskie": {
      "deaths": 141,
      "infections": 6703
    },
    "podkarpackie": {
      "deaths": 299,
      "infections": 13285
    },
    "podlaskie": {
      "deaths": 94,
      "infections": 5455
    },
    "pomorskie": {
      "deaths": 205,
      "infections": 13718
    },
    "slaskie": {
      "deaths": 736,
      "infections": 35161
    },
    "swietokrzyskie": {
      "deaths": 125,
      "infections": 7111
    },
    "warminsko-mazurskie": {
      "deaths": 72,
      "infections": 5100
    },
    "wielkopolskie": {
      "deaths": 475,
      "infections": 20293
    },
    "zachodniopomorskie": {
      "deaths": 64,
      "infections": 6329
    }
  },
  "time": "2020-10-23T10:00:00",
  "timestamp": 1603440000,
  "total": {
    "deaths": 4172,
    "infections": 228318
  }
}
