{
  "regions": {
    "dolnoslaskie": {
      "deaths": 93,
      "infections": 2257
    },
    "kujawsko-pomorskie": {
      "deaths": 44,
      "infections": 583
    },
    "lodzkie": {
      "deaths": 49,
      "infections": 1257
    },
    "lubelskie": {
      "deaths": 14,
      "infections": 409
    },
    "lubuskie": {
      "deaths": 0,
      "infections": 92
    },
    "malopolskie": {
      "deaths": 39,
      "infections": 1148
    },
    "mazowieckie": {
      "deaths": 237,
      "infections": 3040
    },
    "opolskie": {
      "deaths": 41,
      "infections": 555
    },
    "podkarpackie": {
      "deaths": 34,
      "infections": 374
    },
    "podlaskie": {
      "deaths": 9,
      "infections": 398
    },
    "pomorskie": {
      "deaths": 29,
      "infections": 503
    },
    "slaskie": {
      "deaths": 181,
      "infections": 5807
    },
    "swietokrzyskie": {
      "deaths": 19,
      "infections": 353
    },
    "warminsko-mazurskie": {
      "deaths": 1,
      "infections": 175
    },
    "wielkopolskie": {
      "deaths": 140,
      "infections": 1815
    },
    "zachodniopomorskie": {
      "deaths": 18,
      "infections": 502
    }
  },
  "time": "2020-05-19T18:00:00",
  "timestamp": 1589904000,
  "total": {
    "deaths": 948,
    "infections": 19268
  }
}
