{
  "regions": {
    "dolnoslaskie": {
      "deaths": 4,
      "infections": 189
    },
    "kujawsko-pomorskie": {
      "deaths": 0,
      "infections": 33
    },
    "lodzkie": {
      "deaths": 0,
      "infections": 168
    },
    "lubelskie": {
      "deaths": 2,
      "infections": 78
    },
    "lubuskie": {
      "deaths": 0,
      "infections": 31
    },
    "malopolskie": {
      "deaths": 0,
      "infections": 93
    },
    "mazowieckie": {
      "deaths": 3,
      "infections": 291
    },
    "opolskie": {
      "deaths": 0,
      "infections": 27
    },
    "podkarpackie": {
      "deaths": 1,
      "infections": 58
    },
    "podlaskie": {
      "deaths": 0,
      "infections": 17
    },
    "pomorskie": {
      "deaths": 0,
      "infections": 32
    },
    "slaskie": {
      "deaths": 2,
      "infections": 141
    },
    "swietokrzyskie": {
      "deaths": 1,
      "infections": 18
    },
    "warminsko-mazurskie": {
      "deaths": 0,
      "infections": 44
    },
    "wielkopolskie": {
      "deaths": 2,
      "infections": 86
    },
    "zachodniopomorskie": {
      "deaths": 1,
      "infections": 34
    }
  },
  "time": "2020-03-27T17:35:00",
  "timestamp": 1585326900,
  "total": {
    "deaths": 16,
    "infections": 1340
  }
}
