{
  "regions": {
    "dolnoslaskie": {
      "deaths": 6,
      "infections": 357
    },
    "kujawsko-pomorskie": {
      "deaths": 0,
      "infections": 157
    },
    "lodzkie": {
      "deaths": 1,
      "infections": 236
    },
    "lubelskie": {
      "deaths": 5,
      "infections": 155
    },
    "lubuskie": {
      "deaths": 0,
      "infections": 50
    },
    "malopolskie": {
      "deaths": 4,
      "infections": 235
    },
    "mazowieckie": {
      "deaths": 14,
      "infections": 765
    },
    "opolskie": {
      "deaths": 1,
      "infections": 78
    },
    "podkarpackie": {
      "deaths": 4,
      "infections": 121
    },
    "podlaskie": {
      "deaths": 0,
      "infections": 59
    },
    "pomorskie": {
      "deaths": 0,
      "infections": 73
    },
    "slaskie": {
      "deaths": 12,
      "infections": 426
    },
    "swietokrzyskie": {
      "deaths": 1,
      "infections": 71
    },
    "warminsko-mazurskie": {
      "deaths": 0,
      "infections": 72
    },
    "wielkopolskie": {
      "deaths": 9,
      "infections": 205
    },
    "zachodniopomorskie": {
      "deaths": 2,
      "infections": 89
    }
  },
  "time": "2020-04-03T10:00:00",
  "timestamp": 1585900800,
  "total": {
    "deaths": 59,
    "infections": 3149
  }
}
