{
  "regions": {
    "dolnoslaskie": {
      "deaths": 4,
      "infections": 199
    },
    "kujawsko-pomorskie": {
      "deaths": 0,
      "infections": 37
    },
    "lodzkie": {
      "deaths": 0,
      "infections": 182
    },
    "lubelskie": {
      "deaths": 3,
      "infections": 85
    },
    "lubuskie": {
      "deaths": 0,
      "infections": 32
    },
    "malopolskie": {
      "deaths": 0,
      "infections": 109
    },
    "mazowieckie": {
      "deaths": 3,
      "infections": 318
    },
    "opolskie": {
      "deaths": 0,
      "infections": 30
    },
    "podkarpackie": {
      "deaths": 1,
      "infections": 62
    },
    "podlaskie": {
      "deaths": 0,
      "infections": 26
    },
    "pomorskie": {
      "deaths": 0,
      "infections": 35
    },
    "slaskie": {
      "deaths": 2,
      "infections": 151
    },
    "swietokrzyskie": {
      "deaths": 1,
      "infections": 27
    },
    "warminsko-mazurskie": {
      "deaths": 0,
      "infections": 46
    },
    "wielkopolskie": {
      "deaths": 2,
      "infections": 95
    },
    "zachodniopomorskie": {
      "deaths": 1,
      "infections": 47
    }
  },
  "time": "2020-03-28T14:25:00",
  "timestamp": 1585401900,
  "total": {
    "deaths": 17,
    "infections": 1481
  }
}
