{
  "regions": {
    "dolnoslaskie": {
      "deaths": 2,
      "infections": 101
    },
    "kujawsko-pomorskie": {
      "deaths": 0,
      "infections": 21
    },
    "lodzkie": {
      "deaths": 0,
      "infections": 111
    },
    "lubelskie": {
      "deaths": 1,
      "infections": 48
    },
    "lubuskie": {
      "deaths": 0,
      "infections": 16
    },
    "malopolskie": {
      "deaths": 0,
      "infections": 33
    },
    "mazowieckie": {
      "deaths": 1,
      "infections": 175
    },
    "opolskie": {
      "deaths": 0,
      "infections": 19
    },
    "podkarpackie": {
      "deaths": 1,
      "infections": 30
    },
    "podlaskie": {
      "deaths": 0,
      "infections": 7
    },
    "pomorskie": {
      "deaths": 0,
      "infections": 21
    },
    "slaskie": {
      "deaths": 1,
      "infections": 77
    },
    "swietokrzyskie": {
      "deaths": 0,
      "infections": 8
    },
    "warminsko-mazurskie": {
      "deaths": 0,
      "infections": 25
    },
    "wielkopolskie": {
      "deaths": 2,
      "infections": 41
    },
    "zachodniopomorskie": {
      "deaths": 0,
      "infections": 16
    }
  },
  "time": "2020-03-23T20:20:00",
  "timestamp": 1584991200,
  "total": {
    "deaths": 8,
    "infections": 749
  }
}
