{
  "regions": {
    "dolnoslaskie": {
      "deaths": 57,
      "infections": 1786
    },
    "kujawsko-pomorskie": {
      "deaths": 30,
      "infections": 561
    },
    "lodzkie": {
      "deaths": 36,
      "infections": 1088
    },
    "lubelskie": {
      "deaths": 14,
      "infections": 380
    },
    "lubuskie": {
      "deaths": 0,
      "infections": 90
    },
    "malopolskie": {
      "deaths": 32,
      "infections": 1008
    },
    "mazowieckie": {
      "deaths": 214,
      "infections": 2631
    },
    "opolskie": {
      "deaths": 30,
      "infections": 450
    },
    "podkarpackie": {
      "deaths": 25,
      "infections": 366
    },
    "podlaskie": {
      "deaths": 6,
      "infections": 379
    },
    "pomorskie": {
      "deaths": 20,
      "infections": 460
    },
    "slaskie": {
      "deaths": 133,
      "infections": 2935
    },
    "swietokrzyskie": {
      "deaths": 9,
      "infections": 300
    },
    "warminsko-mazurskie": {
      "deaths": 1,
      "infections": 152
    },
    "wielkopolskie": {
      "deaths": 102,
      "infections": 1610
    },
    "zachodniopomorskie": {
      "deaths": 14,
      "infections": 451
    }
  },
  "time": "2020-05-06T10:00:00",
  "timestamp": 1588752000,
  "total": {
    "deaths": 723,
    "infections": 14647
  }
}
