{
  "regions": {
    "dolnoslaskie": {
      "deaths": 24,
      "infections": 709
    },
    "kujawsko-pomorskie": {
      "deaths": 7,
      "infections": 345
    },
    "lodzkie": {
      "deaths": 7,
      "infections": 551
    },
    "lubelskie": {
      "deaths": 10,
      "infections": 240
    },
    "lubuskie": {
      "deaths": 0,
      "infections": 78
    },
    "malopolskie": {
      "deaths": 12,
      "infections": 519
    },
    "mazowieckie": {
      "deaths": 70,
      "infections": 1688
    },
    "opolskie": {
      "deaths": 7,
      "infections": 171
    },
    "podkarpackie": {
      "deaths": 13,
      "infections": 225
    },
    "podlaskie": {
      "deaths": 2,
      "infections": 238
    },
    "pomorskie": {
      "deaths": 1,
      "infections": 175
    },
    "slaskie": {
      "deaths": 47,
      "infections": 879
    },
    "swietokrzyskie": {
      "deaths": 2,
      "infections": 141
    },
    "warminsko-mazurskie": {
      "deaths": 1,
      "infections": 122
    },
    "wielkopolskie": {
      "deaths": 40,
      "infections": 650
    },
    "zachodniopomorskie": {
      "deaths": 2,
      "infections": 203
    }
  },
  "time": "2020-04-13T17:00:00",
  "timestamp": 1586790000,
  "total": {
    "deaths": 245,
    "infections": 6934
  }
}
