{
  "regions": {
    "dolnoslaskie": {
      "deaths": 30,
      "infections": 1014
    },
    "kujawsko-pomorskie": {
      "deaths": 16,
      "infections": 406
    },
    "lodzkie": {
      "deaths": 10,
      "infections": 640
    },
    "lubelskie": {
      "deaths": 10,
      "infections": 308
    },
    "lubuskie": {
      "deaths": 0,
      "infections": 81
    },
    "malopolskie": {
      "deaths": 16,
      "infections": 638
    },
    "mazowieckie": {
      "deaths": 107,
      "infections": 1936
    },
    "opolskie": {
      "deaths": 13,
      "infections": 275
    },
    "podkarpackie": {
      "deaths": 15,
      "infections": 259
    },
    "podlaskie": {
      "deaths": 3,
      "infections": 318
    },
    "pomorskie": {
      "deaths": 2,
      "infections": 208
    },
    "slaskie": {
      "deaths": 71,
      "infections": 1417
    },
    "swietokrzyskie": {
      "deaths": 4,
      "infections": 203
    },
    "warminsko-mazurskie": {
      "deaths": 1,
      "infections": 142
    },
    "wielkopolskie": {
      "deaths": 50,
      "infections": 978
    },
    "zachodniopomorskie": {
      "deaths": 2,
      "infections": 259
    }
  },
  "time": "2020-04-19T10:00:00",
  "timestamp": 1587283200,
  "total": {
    "deaths": 350,
    "infections": 9082
  }
}
