{
  "regions": {
    "dolnoslaskie": {
      "deaths": 49,
      "infections": 1620
    },
    "kujawsko-pomorskie": {
      "deaths": 29,
      "infections": 554
    },
    "lodzkie": {
      "deaths": 34,
      "infections": 1006
    },
    "lubelskie": {
      "deaths": 13,
      "infections": 367
    },
    "lubuskie": {
      "deaths": 0,
      "infections": 87
    },
    "malopolskie": {
      "deaths": 31,
      "infections": 934
    },
    "mazowieckie": {
      "deaths": 207,
      "infections": 2477
    },
    "opolskie": {
      "deaths": 28,
      "infections": 407
    },
    "podkarpackie": {
      "deaths": 23,
      "infections": 341
    },
    "podlaskie": {
      "deaths": 5,
      "infections": 377
    },
    "pomorskie": {
      "deaths": 14,
      "infections": 440
    },
    "slaskie": {
      "deaths": 122,
      "infections": 2446
    },
    "swietokrzyskie": {
      "deaths": 8,
      "infections": 271
    },
    "warminsko-mazurskie": {
      "deaths": 1,
      "infections": 148
    },
    "wielkopolskie": {
      "deaths": 90,
      "infections": 1494
    },
    "zachodniopomorskie": {
      "deaths": 10,
      "infections": 406
    }
  },
  "time": "2020-05-02T13:00:00",
  "timestamp": 1588417200,
  "total": {
    "deaths": 664,
    "infections": 13375
  }
}
