{
  "regions": {
    "dolnoslaskie": {
      "deaths": 197,
      "infections": 7031
    },
    "kujawsko-pomorskie": {
      "deaths": 99,
      "infections": 5450
    },
    "lodzkie": {
      "deaths": 306,
      "infections": 9502
    },
    "lubelskie": {
      "deaths": 78,
      "infections": 4840
    },
    "lubuskie": {
      "deaths": 21,
      "infections": 1630
    },
    "malopolskie": {
      "deaths": 241,
      "infections": 16378
    },
    "mazowieckie": {
      "deaths": 495,
      "infections": 17685
    },
    "opolskie": {
      "deaths": 101,
      "infections": 3309
    },
    "podkarpackie": {
      "deaths": 185,
      "infections": 6532
    },
    "podlaskie": {
      "deaths": 65,
      "infections": 3260
    },
    "pomorskie": {
      "deaths": 126,
      "infections": 8097
    },
    "slaskie": {
      "deaths": 607,
      "infections": 25809
    },
    "swietokrzyskie": {
      "deaths": 74,
      "infections": 3665
    },
    "warminsko-mazurskie": {
      "deaths": 36,
      "infections": 2640
    },
    "wielkopolskie": {
      "deaths": 368,
      "infections": 11312
    },
    "zachodniopomorskie": {
      "deaths": 40,
      "infections": 3070
    }
  },
  "time": "2020-10-12T10:00:00",
  "timestamp": 1602489600,
  "total": {
    "deaths": 3039,
    "infections": 130210
  }
}
