{
  "regions": {
    "dolnoslaskie": {
      "deaths": 715,
      "infections": 51491
    },
    "kujawsko-pomorskie": {
      "deaths": 385,
      "infections": 42524
    },
    "lodzkie": {
      "deaths": 605,
      "infections": 50799
    },
    "lubelskie": {
      "deaths": 615,
      "infections": 37882
    },
    "lubuskie": {
      "deaths": 196,
      "infections": 15400
    },
    "malopolskie": {
      "deaths": 1232,
      "infections": 79281
    },
    "mazowieckie": {
      "deaths": 1376,
      "infections": 88503
    },
    "opolskie": {
      "deaths": 420,
      "infections": 21110
    },
    "podkarpackie": {
      "deaths": 763,
      "infections": 42227
    },
    "podlaskie": {
      "deaths": 285,
      "infections": 19128
    },
    "pomorskie": {
      "deaths": 525,
      "infections": 40182
    },
    "slaskie": {
      "deaths": 1502,
      "infections": 102326
    },
    "swietokrzyskie": {
      "deaths": 388,
      "infections": 22739
    },
    "warminsko-mazurskie": {
      "deaths": 238,
      "infections": 20391
    },
    "wielkopolskie": {
      "deaths": 1014,
      "infections": 75285
    },
    "zachodniopomorskie": {
      "deaths": 232,
      "infections": 24520
    }
  },
  "time": "2020-11-16T10:00:00",
  "timestamp": 1605517200,
  "total": {
    "deaths": 10491,
    "infections": 733788
  }
}
