{
  "regions": {
    "dolnoslaskie": {
      "deaths": 6,
      "infections": 338
    },
    "kujawsko-pomorskie": {
      "deaths": 0,
      "infections": 157
    },
    "lodzkie": {
      "deaths": 1,
      "infections": 236
    },
    "lubelskie": {
      "deaths": 5,
      "infections": 150
    },
    "lubuskie": {
      "deaths": 0,
      "infections": 49
    },
    "malopolskie": {
      "deaths": 4,
      "infections": 230
    },
    "mazowieckie": {
      "deaths": 14,
      "infections": 754
    },
    "opolskie": {
      "deaths": 1,
      "infections": 78
    },
    "podkarpackie": {
      "deaths": 4,
      "infections": 111
    },
    "podlaskie": {
      "deaths": 0,
      "infections": 59
    },
    "pomorskie": {
      "deaths": 0,
      "infections": 70
    },
    "slaskie": {
      "deaths": 11,
      "infections": 301
    },
    "swietokrzyskie": {
      "deaths": 1,
      "infections": 62
    },
    "warminsko-mazurskie": {
      "deaths": 0,
      "infections": 67
    },
    "wielkopolskie": {
      "deaths": 8,
      "infections": 195
    },
    "zachodniopomorskie": {
      "deaths": 2,
      "infections": 89
    }
  },
  "time": "2020-04-02T21:14:00",
  "timestamp": 1585854840,
  "total": {
    "deaths": 57,
    "infections": 2946
  }
}
