{
  "regions": {
    "dolnoslaskie": {
      "deaths": 294,
      "infections": 15865
    },
    "kujawsko-pomorskie": {
      "deaths": 163,
      "infections": 16896
    },
    "lodzkie": {
      "deaths": 392,
      "infections": 22437
    },
    "lubelskie": {
      "deaths": 199,
      "infections": 12689
    },
    "lubuskie": {
      "deaths": 50,
      "infections": 5696
    },
    "malopolskie": {
      "deaths": 513,
      "infections": 37690
    },
    "mazowieckie": {
      "deaths": 649,
      "infections": 43119
    },
    "opolskie": {
      "deaths": 179,
      "infections": 8757
    },
    "podkarpackie": {
      "deaths": 360,
      "infections": 17598
    },
    "podlaskie": {
      "deaths": 103,
      "infections": 6897
    },
    "pomorskie": {
      "deaths": 248,
      "infections": 17209
    },
    "slaskie": {
      "deaths": 839,
      "infections": 41725
    },
    "swietokrzyskie": {
      "deaths": 158,
      "infections": 9214
    },
    "warminsko-mazurskie": {
      "deaths": 87,
      "infections": 6897
    },
    "wielkopolskie": {
      "deaths": 544,
      "infections": 27536
    },
    "zachodniopomorskie": {
      "deaths": 73,
      "infections": 8824
    }
  },
  "time": "2020-10-28T10:00:00",
  "timestamp": 1603875600,
  "total": {
    "deaths": 4851,
    "infections": 299049
  }
}
