{
  "regions": {
    "dolnoslaskie": {
      "deaths": 4,
      "infections": 193
    },
    "kujawsko-pomorskie": {
      "deaths": 0,
      "infections": 37
    },
    "lodzkie": {
      "deaths": 0,
      "infections": 168
    },
    "lubelskie": {
      "deaths": 2,
      "infections": 84
    },
    "lubuskie": {
      "deaths": 0,
      "infections": 32
    },
    "malopolskie": {
      "deaths": 0,
      "infections": 105
    },
    "mazowieckie": {
      "deaths": 3,
      "infections": 318
    },
    "opolskie": {
      "deaths": 0,
      "infections": 29
    },
    "podkarpackie": {
      "deaths": 1,
      "infections": 61
    },
    "podlaskie": {
      "deaths": 0,
      "infections": 18
    },
    "pomorskie": {
      "deaths": 0,
      "infections": 35
    },
    "slaskie": {
      "deaths": 2,
      "infections": 151
    },
    "swietokrzyskie": {
      "deaths": 1,
      "infections": 22
    },
    "warminsko-mazurskie": {
      "deaths": 0,
      "infections": 44
    },
    "wielkopolskie": {
      "deaths": 2,
      "infections": 92
    },
    "zachodniopomorskie": {
      "deaths": 1,
      "infections": 47
    }
  },
  "time": "2020-03-28T09:12:00",
  "timestamp": 1585383120,
  "total": {
    "deaths": 16,
    "infections": 1436
  }
}
