{
  "regions": {
    "dolnoslaskie": {
      "deaths": 173,
      "infections": 4838
    },
    "kujawsko-pomorskie": {
      "deaths": 66,
      "infections": 1935
    },
    "lodzkie": {
      "deaths": 265,
      "infections": 6247
    },
    "lubelskie": {
      "deaths": 36,
      "infections": 2294
    },
    "lubuskie": {
      "deaths": 18,
      "infections": 897
    },
    "malopolskie": {
      "deaths": 183,
      "infections": 10058
    },
    "mazowieckie": {
      "deaths": 438,
      "infections": 11644
    },
    "opolskie": {
      "deaths": 75,
      "infections": 2168
    },
    "podkarpackie": {
      "deaths": 122,
      "infections": 3406
    },
    "podlaskie": {
      "deaths": 41,
      "infections": 1686
    },
    "pomorskie": {
      "deaths": 59,
      "infections": 4009
    },
    "slaskie": {
      "deaths": 534,
      "infections": 21924
    },
    "swietokrzyskie": {
      "deaths": 55,
      "infections": 1879
    },
    "warminsko-mazurskie": {
      "deaths": 12,
      "infections": 1300
    },
    "wielkopolskie": {
      "deaths": 262,
      "infections": 7038
    },
    "zachodniopomorskie": {
      "deaths": 30,
      "infections": 1486
    }
  },
  "time": "2020-09-24T10:00:00",
  "timestamp": 1600934400,
  "total": {
    "deaths": 2369,
    "infections": 82809
  }
}
