{
  "regions": {
    "dolnoslaskie": {
      "deaths": 172,
      "infections": 4513
    },
    "kujawsko-pomorskie": {
      "deaths": 57,
      "infections": 1703
    },
    "lodzkie": {
      "deaths": 253,
      "infections": 5743
    },
    "lubelskie": {
      "deaths": 31,
      "infections": 1925
    },
    "lubuskie": {
      "deaths": 17,
      "infections": 804
    },
    "malopolskie": {
      "deaths": 169,
      "infections": 9201
    },
    "mazowieckie": {
      "deaths": 427,
      "infections": 10763
    },
    "opolskie": {
      "deaths": 71,
      "infections": 1889
    },
    "podkarpackie": {
      "deaths": 105,
      "infections": 3054
    },
    "podlaskie": {
      "deaths": 37,
      "infections": 1532
    },
    "pomorskie": {
      "deaths": 52,
      "infections": 3355
    },
    "slaskie": {
      "deaths": 520,
      "infections": 21412
    },
    "swietokrzyskie": {
      "deaths": 54,
      "infections": 1712
    },
    "warminsko-mazurskie": {
      "deaths": 9,
      "infections": 1140
    },
    "wielkopolskie": {
      "deaths": 249,
      "infections": 6498
    },
    "zachodniopomorskie": {
      "deaths": 30,
      "infections": 1327
    }
  },
  "time": "2020-09-17T10:00:00",
  "timestamp": 1600329600,
  "total": {
    "deaths": 2253,
    "infections": 76571
  }
}
