{
  "regions": {
    "dolnoslaskie": {
      "deaths": 89,
      "infections": 2164
    },
    "kujawsko-pomorskie": {
      "deaths": 42,
      "infections": 582
    },
    "lodzkie": {
      "deaths": 48,
      "infections": 1234
    },
    "lubelskie": {
      "deaths": 14,
      "infections": 402
    },
    "lubuskie": {
      "deaths": 0,
      "infections": 92
    },
    "malopolskie": {
      "deaths": 38,
      "infections": 1127
    },
    "mazowieckie": {
      "deaths": 231,
      "infections": 2949
    },
    "opolskie": {
      "deaths": 39,
      "infections": 543
    },
    "podkarpackie": {
      "deaths": 31,
      "infections": 374
    },
    "podlaskie": {
      "deaths": 8,
      "infections": 388
    },
    "pomorskie": {
      "deaths": 28,
      "infections": 502
    },
    "slaskie": {
      "deaths": 176,
      "infections": 5251
    },
    "swietokrzyskie": {
      "deaths": 17,
      "infections": 341
    },
    "warminsko-mazurskie": {
      "deaths": 1,
      "infections": 170
    },
    "wielkopolskie": {
      "deaths": 139,
      "infections": 1782
    },
    "zachodniopomorskie": {
      "deaths": 18,
      "infections": 493
    }
  },
  "time": "2020-05-17T10:00:00",
  "timestamp": 1589702400,
  "total": {
    "deaths": 919,
    "infections": 18394
  }
}
