{
  "regions": {
    "dolnoslaskie": {
      "deaths": 122,
      "infections": 2737
    },
    "kujawsko-pomorskie": {
      "deaths": 47,
      "infections": 606
    },
    "lodzkie": {
      "deaths": 93,
      "infections": 2129
    },
    "lubelskie": {
      "deaths": 16,
      "infections": 520
    },
    "lubuskie": {
      "deaths": 0,
      "infections": 129
    },
    "malopolskie": {
      "deaths": 40,
      "infections": 1442
    },
    "mazowieckie": {
      "deaths": 285,
      "infections": 4033
    },
    "opolskie": {
      "deaths": 49,
      "infections": 760
    },
    "podkarpackie": {
      "deaths": 38,
      "infections": 407
    },
    "podlaskie": {
      "deaths": 9,
      "infections": 542
    },
    "pomorskie": {
      "deaths": 37,
      "infections": 579
    },
    "slaskie": {
      "deaths": 252,
      "infections": 10156
    },
    "swietokrzyskie": {
      "deaths": 24,
      "infections": 578
    },
    "warminsko-mazurskie": {
      "deaths": 1,
      "infections": 181
    },
    "wielkopolskie": {
      "deaths": 159,
      "infections": 2305
    },
    "zachodniopomorskie": {
      "deaths": 19,
      "infections": 564
    }
  },
  "time": "2020-06-10T10:00:00",
  "timestamp": 1591776000,
  "total": {
    "deaths": 1191,
    "infections": 27668
  }
}
