{
  "regions": {
    "dolnoslaskie": {
      "deaths": 117,
      "infections": 2680
    },
    "kujawsko-pomorskie": {
      "deaths": 47,
      "infections": 601
    },
    "lodzkie": {
      "deaths": 76,
      "infections": 1826
    },
    "lubelskie": {
      "deaths": 15,
      "infections": 505
    },
    "lubuskie": {
      "deaths": 0,
      "infections": 124
    },
    "malopolskie": {
      "deaths": 40,
      "infections": 1305
    },
    "mazowieckie": {
      "deaths": 281,
      "infections": 3796
    },
    "opolskie": {
      "deaths": 49,
      "infections": 710
    },
    "podkarpackie": {
      "deaths": 36,
      "infections": 388
    },
    "podlaskie": {
      "deaths": 9,
      "infections": 493
    },
    "pomorskie": {
      "deaths": 36,
      "infections": 564
    },
    "slaskie": {
      "deaths": 235,
      "infections": 8963
    },
    "swietokrzyskie": {
      "deaths": 22,
      "infections": 512
    },
    "warminsko-mazurskie": {
      "deaths": 1,
      "infections": 180
    },
    "wielkopolskie": {
      "deaths": 154,
      "infections": 2219
    },
    "zachodniopomorskie": {
      "deaths": 19,
      "infections": 553
    }
  },
  "time": "2020-06-05T17:30:00",
  "timestamp": 1591371000,
  "total": {
    "deaths": 1137,
    "infections": 25419
  }
}
