{
  "regions": {
    "dolnoslaskie": {
      "deaths": 72,
      "infections": 2024
    },
    "kujawsko-pomorskie": {
      "deaths": 32,
      "infections": 577
    },
    "lodzkie": {
      "deaths": 40,
      "infections": 1188
    },
    "lubelskie": {
      "deaths": 14,
      "infections": 392
    },
    "lubuskie": {
      "deaths": 0,
      "infections": 92
    },
    "malopolskie": {
      "deaths": 35,
      "infections": 1071
    },
    "mazowieckie": {
      "deaths": 222,
      "infections": 2808
    },
    "opolskie": {
      "deaths": 35,
      "infections": 495
    },
    "podkarpackie": {
      "deaths": 29,
      "infections": 371
    },
    "podlaskie": {
      "deaths": 7,
      "infections": 384
    },
    "pomorskie": {
      "deaths": 27,
      "infections": 485
    },
    "slaskie": {
      "deaths": 151,
      "infections": 3779
    },
    "swietokrzyskie": {
      "deaths": 12,
      "infections": 325
    },
    "warminsko-mazurskie": {
      "deaths": 1,
      "infections": 162
    },
    "wielkopolskie": {
      "deaths": 118,
      "infections": 1699
    },
    "zachodniopomorskie": {
      "deaths": 16,
      "infections": 474
    }
  },
  "time": "2020-05-11T17:30:00",
  "timestamp": 1589211000,
  "total": {
    "deaths": 811,
    "infections": 16326
  }
}
