{
  "regions": {
    "dolnoslaskie": {
      "deaths": 33,
      "infections": 1099
    },
    "kujawsko-pomorskie": {
      "deaths": 17,
      "infections": 433
    },
    "lodzkie": {
      "deaths": 10,
      "infections": 682
    },
    "lubelskie": {
      "deaths": 10,
      "infections": 325
    },
    "lubuskie": {
      "deaths": 0,
      "infections": 83
    },
    "malopolskie": {
      "deaths": 20,
      "infections": 684
    },
    "mazowieckie": {
      "deaths": 116,
      "infections": 2030
    },
    "opolskie": {
      "deaths": 14,
      "infections": 296
    },
    "podkarpackie": {
      "deaths": 16,
      "infections": 266
    },
    "podlaskie": {
      "deaths": 3,
      "infections": 331
    },
    "pomorskie": {
      "deaths": 2,
      "infections": 219
    },
    "slaskie": {
      "deaths": 77,
      "infections": 1567
    },
    "swietokrzyskie": {
      "deaths": 4,
      "infections": 230
    },
    "warminsko-mazurskie": {
      "deaths": 1,
      "infections": 145
    },
    "wielkopolskie": {
      "deaths": 58,
      "infections": 1068
    },
    "zachodniopomorskie": {
      "deaths": 4,
      "infections": 279
    }
  },
  "time": "2020-04-21T10:00:00",
  "timestamp": 1587456000,
  "total": {
    "deaths": 385,
    "infections": 9737
  }
}
