{
  "regions": {
    "dolnoslaskie": {
      "deaths": 94,
      "infections": 2295
    },
    "kujawsko-pomorskie": {
      "deaths": 44,
      "infections": 587
    },
    "lodzkie": {
      "deaths": 51,
      "infections": 1279
    },
    "lubelskie": {
      "deaths": 15,
      "infections": 417
    },
    "lubuskie": {
      "deaths": 0,
      "infections": 95
    },
    "malopolskie": {
      "deaths": 40,
      "infections": 1165
    },
    "mazowieckie": {
      "deaths": 245,
      "infections": 3128
    },
    "opolskie": {
      "deaths": 43,
      "infections": 576
    },
    "podkarpackie": {
      "deaths": 34,
      "infections": 375
    },
    "podlaskie": {
      "deaths": 9,
      "infections": 405
    },
    "pomorskie": {
      "deaths": 29,
      "infections": 513
    },
    "slaskie": {
      "deaths": 186,
      "infections": 6333
    },
    "swietokrzyskie": {
      "deaths": 20,
      "infections": 361
    },
    "warminsko-mazurskie": {
      "deaths": 1,
      "infections": 174
    },
    "wielkopolskie": {
      "deaths": 143,
      "infections": 1925
    },
    "zachodniopomorskie": {
      "deaths": 18,
      "infections": 515
    }
  },
  "time": "2020-05-21T17:30:00",
  "timestamp": 1590075000,
  "total": {
    "deaths": 972,
    "infections": 20143
  }
}
