{
  "regions": {
    "dolnoslaskie": {
      "deaths": 150,
      "infections": 2972
    },
    "kujawsko-pomorskie": {
      "deaths": 49,
      "infections": 696
    },
    "lodzkie": {
      "deaths": 187,
      "infections": 3391
    },
    "lubelskie": {
      "deaths": 20,
      "infections": 774
    },
    "lubuskie": {
      "deaths": 0,
      "infections": 186
    },
    "malopolskie": {
      "deaths": 45,
      "infections": 2019
    },
    "mazowieckie": {
      "deaths": 352,
      "infections": 5369
    },
    "opolskie": {
      "deaths": 53,
      "infections": 1003
    },
    "podkarpackie": {
      "deaths": 55,
      "infections": 850
    },
    "podlaskie": {
      "deaths": 16,
      "infections": 899
    },
    "pomorskie": {
      "deaths": 38,
      "infections": 706
    },
    "slaskie": {
      "deaths": 355,
      "infections": 13748
    },
    "swietokrzyskie": {
      "deaths": 41,
      "infections": 855
    },
    "warminsko-mazurskie": {
      "deaths": 1,
      "infections": 282
    },
    "wielkopolskie": {
      "deaths": 183,
      "infections": 3136
    },
    "zachodniopomorskie": {
      "deaths": 23,
      "infections": 635
    }
  },
  "time": "2020-07-11T10:00:00",
  "timestamp": 1594454400,
  "total": {
    "deaths": 1568,
    "infections": 37521
  }
}
