{
  "regions": {
    "dolnoslaskie": {
      "deaths": 331,
      "infections": 17721
    },
    "kujawsko-pomorskie": {
      "deaths": 173,
      "infections": 20253
    },
    "lodzkie": {
      "deaths": 409,
      "infections": 25785
    },
    "lubelskie": {
      "deaths": 225,
      "infections": 15844
    },
    "lubuskie": {
      "deaths": 65,
      "infections": 6411
    },
    "malopolskie": {
      "deaths": 596,
      "infections": 41531
    },
    "mazowieckie": {
      "deaths": 707,
      "infections": 48790
    },
    "opolskie": {
      "deaths": 203,
      "infections": 9789
    },
    "podkarpackie": {
      "deaths": 400,
      "infections": 20178
    },
    "podlaskie": {
      "deaths": 119,
      "infections": 8113
    },
    "pomorskie": {
      "deaths": 277,
      "infections": 19211
    },
    "slaskie": {
      "deaths": 892,
      "infections": 45480
    },
    "swietokrzyskie": {
      "deaths": 188,
      "infections": 10420
    },
    "warminsko-mazurskie": {
      "deaths": 95,
      "infections": 8016
    },
    "wielkopolskie": {
      "deaths": 582,
      "infections": 33251
    },
    "zachodniopomorskie": {
      "deaths": 89,
      "infections": 10041
    }
  },
  "time": "2020-10-30T10:00:00",
  "timestamp": 1604048400,
  "total": {
    "deaths": 5351,
    "infections": 340834
  }
}
