{
  "regions": {
    "dolnoslaskie": {
      "deaths": 4,
      "infections": 258
    },
    "kujawsko-pomorskie": {
      "deaths": 0,
      "infections": 72
    },
    "lodzkie": {
      "deaths": 0,
      "infections": 202
    },
    "lubelskie": {
      "deaths": 4,
      "infections": 114
    },
    "lubuskie": {
      "deaths": 0,
      "infections": 36
    },
    "malopolskie": {
      "deaths": 1,
      "infections": 174
    },
    "mazowieckie": {
      "deaths": 7,
      "infections": 487
    },
    "opolskie": {
      "deaths": 0,
      "infections": 54
    },
    "podkarpackie": {
      "deaths": 3,
      "infections": 80
    },
    "podlaskie": {
      "deaths": 0,
      "infections": 36
    },
    "pomorskie": {
      "deaths": 0,
      "infections": 48
    },
    "slaskie": {
      "deaths": 7,
      "infections": 209
    },
    "swietokrzyskie": {
      "deaths": 1,
      "infections": 37
    },
    "warminsko-mazurskie": {
      "deaths": 0,
      "infections": 57
    },
    "wielkopolskie": {
      "deaths": 3,
      "infections": 132
    },
    "zachodniopomorskie": {
      "deaths": 1,
      "infections": 59
    }
  },
  "time": "2020-03-30T20:00:00",
  "timestamp": 1585591200,
  "total": {
    "deaths": 31,
    "infections": 2055
  }
}
