{
  "regions": {
    "dolnoslaskie": {
      "deaths": 4,
      "infections": 326
    },
    "kujawsko-pomorskie": {
      "deaths": 0,
      "infections": 84
    },
    "lodzkie": {
      "deaths": 1,
      "infections": 221
    },
    "lubelskie": {
      "deaths": 5,
      "infections": 133
    },
    "lubuskie": {
      "deaths": 0,
      "infections": 47
    },
    "malopolskie": {
      "deaths": 1,
      "infections": 209
    },
    "mazowieckie": {
      "deaths": 11,
      "infections": 612
    },
    "opolskie": {
      "deaths": 0,
      "infections": 75
    },
    "podkarpackie": {
      "deaths": 3,
      "infections": 104
    },
    "podlaskie": {
      "deaths": 0,
      "infections": 47
    },
    "pomorskie": {
      "deaths": 0,
      "infections": 60
    },
    "slaskie": {
      "deaths": 10,
      "infections": 272
    },
    "swietokrzyskie": {
      "deaths": 1,
      "infections": 55
    },
    "warminsko-mazurskie": {
      "deaths": 0,
      "infections": 61
    },
    "wielkopolskie": {
      "deaths": 6,
      "infections": 169
    },
    "zachodniopomorskie": {
      "deaths": 1,
      "infections": 79
    }
  },
  "time": "2020-04-01T21:19:00",
  "timestamp": 1585768740,
  "total": {
    "deaths": 43,
    "infections": 2554
  }
}
