{
  "regions": {
    "dolnoslaskie": {
      "deaths": 355,
      "infections": 20211
    },
    "kujawsko-pomorskie": {
      "deaths": 184,
      "infections": 24827
    },
    "lodzkie": {
      "deaths": 429,
      "infections": 30335
    },
    "lubelskie": {
      "deaths": 267,
      "infections": 20214
    },
    "lubuskie": {
      "deaths": 73,
      "infections": 7605
    },
    "malopolskie": {
      "deaths": 656,
      "infections": 46464
    },
    "mazowieckie": {
      "deaths": 782,
      "infections": 56526
    },
    "opolskie": {
      "deaths": 213,
      "infections": 11076
    },
    "podkarpackie": {
      "deaths": 461,
      "infections": 23872
    },
    "podlaskie": {
      "deaths": 141,
      "infections": 9912
    },
    "pomorskie": {
      "deaths": 309,
      "infections": 22410
    },
    "slaskie": {
      "deaths": 943,
      "infections": 50609
    },
    "swietokrzyskie": {
      "deaths": 210,
      "infections": 11807
    },
    "warminsko-mazurskie": {
      "deaths": 112,
      "infections": 9874
    },
    "wielkopolskie": {
      "deaths": 640,
      "infections": 37679
    },
    "zachodniopomorskie": {
      "deaths": 100,
      "infections": 12059
    }
  },
  "time": "2020-11-02T10:00:00",
  "timestamp": 1604307600,
  "total": {
    "deaths": 5875,
    "infections": 395480
  }
}
