{
  "regions": {
    "dolnoslaskie": {
      "deaths": 137,
      "infections": 2878
    },
    "kujawsko-pomorskie": {
      "deaths": 49,
      "infections": 653
    },
    "lodzkie": {
      "deaths": 148,
      "infections": 2957
    },
    "lubelskie": {
      "deaths": 17,
      "infections": 614
    },
    "lubuskie": {
      "deaths": 0,
      "infections": 145
    },
    "malopolskie": {
      "deaths": 44,
      "infections": 1629
    },
    "mazowieckie": {
      "deaths": 324,
      "infections": 4832
    },
    "opolskie": {
      "deaths": 50,
      "infections": 866
    },
    "podkarpackie": {
      "deaths": 50,
      "infections": 577
    },
    "podlaskie": {
      "deaths": 10,
      "infections": 749
    },
    "pomorskie": {
      "deaths": 38,
      "infections": 643
    },
    "slaskie": {
      "deaths": 301,
      "infections": 12192
    },
    "swietokrzyskie": {
      "deaths": 36,
      "infections": 742
    },
    "warminsko-mazurskie": {
      "deaths": 1,
      "infections": 223
    },
    "wielkopolskie": {
      "deaths": 171,
      "infections": 2518
    },
    "zachodniopomorskie": {
      "deaths": 20,
      "infections": 603
    }
  },
  "time": "2020-06-24T10:00:00",
  "timestamp": 1592985600,
  "total": {
    "deaths": 1396,
    "infections": 32821
  }
}
