{
  "regions": {
    "dolnoslaskie": {
      "deaths": 827,
      "infections": 57808
    },
    "kujawsko-pomorskie": {
      "deaths": 457,
      "infections": 45056
    },
    "lodzkie": {
      "deaths": 666,
      "infections": 54337
    },
    "lubelskie": {
      "deaths": 706,
      "infections": 40911
    },
    "lubuskie": {
      "deaths": 244,
      "infections": 16922
    },
    "malopolskie": {
      "deaths": 1423,
      "infections": 84283
    },
    "mazowieckie": {
      "deaths": 1551,
      "infections": 97156
    },
    "opolskie": {
      "deaths": 481,
      "infections": 23385
    },
    "podkarpackie": {
      "deaths": 896,
      "infections": 44651
    },
    "podlaskie": {
      "deaths": 336,
      "infections": 20637
    },
    "pomorskie": {
      "deaths": 620,
      "infections": 44319
    },
    "slaskie": {
      "deaths": 1709,
      "infections": 111359
    },
    "swietokrzyskie": {
      "deaths": 442,
      "infections": 25178
    },
    "warminsko-mazurskie": {
      "deaths": 305,
      "infections": 22667
    },
    "wielkopolskie": {
      "deaths": 1155,
      "infections": 80087
    },
    "zachodniopomorskie": {
      "deaths": 270,
      "infections": 28042
    }
  },
  "time": "2020-11-19T10:00:00",
  "timestamp": 1605776400,
  "total": {
    "deaths": 12088,
    "infections": 796798
  }
}
