{
  "regions": {
    "dolnoslaskie": {
      "deaths": 68,
      "infections": 2018
    },
    "kujawsko-pomorskie": {
      "deaths": 32,
      "infections": 577
    },
    "lodzkie": {
      "deaths": 40,
      "infections": 1178
    },
    "lubelskie": {
      "deaths": 14,
      "infections": 388
    },
    "lubuskie": {
      "deaths": 0,
      "infections": 92
    },
    "malopolskie": {
      "deaths": 35,
      "infections": 1061
    },
    "mazowieckie": {
      "deaths": 222,
      "infections": 2791
    },
    "opolskie": {
      "deaths": 34,
      "infections": 495
    },
    "podkarpackie": {
      "deaths": 29,
      "infections": 371
    },
    "podlaskie": {
      "deaths": 7,
      "infections": 384
    },
    "pomorskie": {
      "deaths": 26,
      "infections": 485
    },
    "slaskie": {
      "deaths": 150,
      "infections": 3708
    },
    "swietokrzyskie": {
      "deaths": 12,
      "infections": 325
    },
    "warminsko-mazurskie": {
      "deaths": 1,
      "infections": 162
    },
    "wielkopolskie": {
      "deaths": 117,
      "infections": 1697
    },
    "zachodniopomorskie": {
      "deaths": 16,
      "infections": 474
    }
  },
  "time": "2020-05-11T10:00:00",
  "timestamp": 1589184000,
  "total": {
    "deaths": 803,
    "infections": 16206
  }
}
