{
  "regions": {
    "dolnoslaskie": {
      "deaths": 96,
      "infections": 2378
    },
    "kujawsko-pomorskie": {
      "deaths": 45,
      "infections": 591
    },
    "lodzkie": {
      "deaths": 58,
      "infections": 1316
    },
    "lubelskie": {
      "deaths": 15,
      "infections": 421
    },
    "lubuskie": {
      "deaths": 0,
      "infections": 99
    },
    "malopolskie": {
      "deaths": 40,
      "infections": 1170
    },
    "mazowieckie": {
      "deaths": 247,
      "infections": 3157
    },
    "opolskie": {
      "deaths": 44,
      "infections": 590
    },
    "podkarpackie": {
      "deaths": 35,
      "infections": 376
    },
    "podlaskie": {
      "deaths": 9,
      "infections": 412
    },
    "pomorskie": {
      "deaths": 29,
      "infections": 525
    },
    "slaskie": {
      "deaths": 187,
      "infections": 6780
    },
    "swietokrzyskie": {
      "deaths": 20,
      "infections": 374
    },
    "warminsko-mazurskie": {
      "deaths": 1,
      "infections": 175
    },
    "wielkopolskie": {
      "deaths": 145,
      "infections": 1953
    },
    "zachodniopomorskie": {
      "deaths": 19,
      "infections": 521
    }
  },
  "time": "2020-05-23T10:00:00",
  "timestamp": 1590220800,
  "total": {
    "deaths": 990,
    "infections": 20838
  }
}
