{
  "regions": {
    "dolnoslaskie": {
      "deaths": 166,
      "infections": 3995
    },
    "kujawsko-pomorskie": {
      "deaths": 54,
      "infections": 1268
    },
    "lodzkie": {
      "deaths": 235,
      "infections": 5196
    },
    "lubelskie": {
      "deaths": 25,
      "infections": 1484
    },
    "lubuskie": {
      "deaths": 14,
      "infections": 660
    },
    "malopolskie": {
      "deaths": 126,
      "infections": 7128
    },
    "mazowieckie": {
      "deaths": 404,
      "infections": 9108
    },
    "opolskie": {
      "deaths": 60,
      "infections": 1603
    },
    "podkarpackie": {
      "deaths": 81,
      "infections": 2331
    },
    "podlaskie": {
      "deaths": 30,
      "infections": 1262
    },
    "pomorskie": {
      "deaths": 44,
      "infections": 2371
    },
    "slaskie": {
      "deaths": 474,
      "infections": 20236
    },
    "swietokrzyskie": {
      "deaths": 49,
      "infections": 1380
    },
    "warminsko-mazurskie": {
      "deaths": 8,
      "infections": 857
    },
    "wielkopolskie": {
      "deaths": 221,
      "infections": 5505
    },
    "zachodniopomorskie": {
      "deaths": 27,
      "infections": 1096
    }
  },
  "time": "2020-08-28T10:00:00",
  "timestamp": 1598601600,
  "total": {
    "deaths": 2018,
    "infections": 65480
  }
}
